[00:00:00]: 
System Memory:
	Memory Load: 46%
	Available Physical Memory: 8767m/16276m
	Available Page File: 8003m/21396m
	Available Virtual Memory: 3986m/4095m
	Available Extended Virtual Memory: 0m
[00:00:00]: 
Process Memory:
	Peak Working Set Size: 31m
	Working Set Size: 31m
	Quota Peak Page Pool Usage: 205k
	Quota Page Pool Usage: 202k
	Quota Peak Non Paged Pool Usage:17k
	Quota Non Paged Pool Usage: 16k
	Page File Usage: 5m
	Peak Page File Usage: 5m
[00:00:00]: PersistRootStorage is now APP:Klei//DoNotStarveTogether/299373236/Cluster_2/Caves/ 
[00:00:00]: Starting Up
[00:00:00]: Version: 455744
[00:00:00]: Current time: Fri Mar 12 21:57:41 2021

[00:00:00]: Don't Starve Together: 455744 WIN32
[00:00:00]: Build Date: 6114
[00:00:00]: Mode: 32-bit
[00:00:00]: Parsing command line
[00:00:00]: Command Line Arguments: -monitor_parent_process 14668 -persistent_storage_root APP:Klei/ -conf_dir DoNotStarveTogether -cluster Cluster_2 -fo -ownernetid 76561198259638964 -ownerdir 299373236 -backup_log_count 10 -backup_log_period 0 -shard Caves -sigprefix DST_Secondary -region US 
[00:00:01]: Initializing distribution platform
[00:00:01]: Initializing Minidump handler
[00:00:01]: ....Done
[00:00:01]: ....Done
[00:00:01]: Fixing DPI
[00:00:01]: ...Done
[00:00:01]: THREAD - started 'GAClient' (16164)
[00:00:01]: CurlRequestManager::ClientThread::Main()
[00:00:01]: Mounting file system databundles/klump.zip successful.
[00:00:01]: Mounting file system databundles/shaders.zip successful.
[00:00:01]: Mounting file system databundles/fonts.zip successful.
[00:00:01]: Mounting file system databundles/anim_dynamic.zip successful.
[00:00:01]: Mounting file system databundles/bigportraits.zip successful.
[00:00:01]: Mounting file system databundles/images.zip successful.
[00:00:01]: Mounting file system databundles/scripts.zip successful.
[00:00:01]: [Steam] SteamGameServer_Init(10998, 27017)
[00:00:02]: [Steam] SteamGameServer_Init success
[00:00:02]: ProfileIndex:4.09
[00:00:02]: [Connect] PendingConnection::Reset(true)
[00:00:02]: Platform: 1
[00:00:02]: THREAD - started 'Ping Job Thread' (4356)
[00:00:02]: Network tick rate: U=15(2), D=0
[00:00:02]: Network tick rate: U=15(2), D=0
[00:00:02]: Authorized application C:\Program Files (x86)\Steam\steamapps\common\Don't Starve Together\bin\dontstarve_dedicated_server_nullrenderer.exe is enabled in the firewall.
[00:00:02]: WindowsFirewall - Application already authorized
[00:00:02]: Overriding region to US
[00:00:02]: THREAD - started 'StreamInput' (6448)
[00:00:02]: OnLoadPermissionList: APP:Klei//DoNotStarveTogether/299373236/client_save/blocklist.txt (Failure)
[00:00:02]: OnLoadPermissionList: APP:Klei//DoNotStarveTogether/299373236/client_save/adminlist.txt (Failure)
[00:00:02]: OnLoadUserIdList: APP:Klei//DoNotStarveTogether/299373236/client_save/whitelist.txt (Failure)
[00:00:02]: Offline user ID: OU_76561198259638964
[00:00:02]: Token retrieved from: APP:Klei//DoNotStarveTogether/299373236/Cluster_2/cluster_token.txt
[00:00:02]: Token retrieved from: APP:Klei//DoNotStarveTogether/299373236/Cluster_2/cluster_token.txt
[00:00:02]: HardwareStats:
  OS                        
    name                      Microsoft Windows 10 Home
    version                   10.0.19041
    architecture              64-bit
    platformSpecific          SP 0.0
  CPU                       
    numCores                  4
    features                  SSE,SSE2,SSE3,SSSE3,SSE41,SSE42,AVX
    name                      Intel(R) Core(TM) i7-6700HQ CPU @ 2.60GHz
    manufacturer              GenuineIntel
    clockSpeed                2592
  RAM                       
    megsOfRam                 16384
  GPU                       
    name                      Intel(R) HD Graphics 530
    driverDate                20200905000000.000000-000
    megsOfRam                 1024
    refreshRate               59
    videoModeDescription      3200 x 1800 x 4294967296 colors
    driverVersion             27.20.100.8682

[00:00:02]: cGame::InitializeOnMainThread
[00:00:02]: Renderer initialize: Okay
[00:00:02]: AnimManager initialize: Okay
[00:00:02]: Buffers initialize: Okay
[00:00:02]: cDontStarveGame::DoGameSpecificInitialize()
[00:00:02]: GameSpecific initialize: Okay
[00:00:02]: cGame::StartPlaying
[00:00:02]: LOADING LUA
[00:00:02]: DoLuaFile scripts/main.lua
[00:00:02]: DoLuaFile loading buffer scripts/main.lua
[00:00:02]:   taskgrouplist:	default	Together	
[00:00:02]:   taskgrouplist:	classic	Classic	
[00:00:02]:   taskgrouplist:	cave_default	Underground	
[00:00:02]:   taskgrouplist:	lavaarena_taskset	The Forge	
[00:00:02]:   taskgrouplist:	quagmire_taskset	The Gorge	
[00:00:02]: running main.lua
	
[00:00:02]: Could not load modindex	
[00:00:02]: ModIndex: Beginning normal load sequence for dedicated server.
	
[00:00:02]: SUCCESS: Loaded modoverrides.lua	
[00:00:02]: modoverrides.lua enabling workshop-1207269058	
[00:00:02]: modoverrides.lua enabling workshop-378160973	
[00:00:02]: ModIndex:GetModsToLoad inserting moddir, 	workshop-1207269058	
[00:00:02]: ModIndex:GetModsToLoad inserting moddir, 	workshop-378160973	
[00:00:02]: Could not load mod_config_data/modconfiguration_workshop-1207269058_CLIENT	
[00:00:02]: applying configuration_options from modoverrides.lua to mod workshop-1207269058	
[00:00:02]: applying configuration_options from modoverrides.lua to mod workshop-378160973	
[00:00:02]: Overriding mod workshop-378160973's option FIREOPTIONS with value 2	
[00:00:02]: Overriding mod workshop-378160973's option SHOWFIREICONS with value true	
[00:00:02]: Overriding mod workshop-378160973's option SHAREMINIMAPPROGRESS with value true	
[00:00:02]: Overriding mod workshop-378160973's option SHOWPLAYERICONS with value true	
[00:00:02]: Overriding mod workshop-378160973's option OVERRIDEMODE with value false	
[00:00:02]: Overriding mod workshop-378160973's option SHOWPLAYERSOPTIONS with value 2	
[00:00:02]: Overriding mod workshop-378160973's option ENABLEPINGS with value true	
[00:00:02]: Loading mod: workshop-1207269058 ( Simple Health Bar DST) Version:2.13	
[00:00:02]: Could not load mod_config_data/modconfiguration_workshop-378160973_CLIENT	
[00:00:02]: applying configuration_options from modoverrides.lua to mod workshop-1207269058	
[00:00:02]: applying configuration_options from modoverrides.lua to mod workshop-378160973	
[00:00:02]: Overriding mod workshop-378160973's option FIREOPTIONS with value 2	
[00:00:02]: Overriding mod workshop-378160973's option SHOWFIREICONS with value true	
[00:00:02]: Overriding mod workshop-378160973's option SHAREMINIMAPPROGRESS with value true	
[00:00:02]: Overriding mod workshop-378160973's option SHOWPLAYERICONS with value true	
[00:00:02]: Overriding mod workshop-378160973's option OVERRIDEMODE with value false	
[00:00:02]: Overriding mod workshop-378160973's option SHOWPLAYERSOPTIONS with value 2	
[00:00:02]: Overriding mod workshop-378160973's option ENABLEPINGS with value true	
[00:00:02]: Loading mod: workshop-378160973 (Global Positions) Version:1.7.3	
[00:00:02]: Mod: workshop-378160973 (Global Positions)	Loading modworldgenmain.lua	
[00:00:02]: Mod: workshop-378160973 (Global Positions)	  Mod had no modworldgenmain.lua. Skipping.	
[00:00:02]: Mod: workshop-378160973 (Global Positions)	Loading modmain.lua	
[00:00:02]: ModIndex:GetModsToLoad inserting moddir, 	workshop-1207269058	
[00:00:02]: ModIndex:GetModsToLoad inserting moddir, 	workshop-378160973	
[00:00:03]: Mod: workshop-1207269058 ( Simple Health Bar DST)	Loading modworldgenmain.lua	
[00:00:03]: Mod: workshop-1207269058 ( Simple Health Bar DST)	  Mod had no modworldgenmain.lua. Skipping.	
[00:00:03]: Mod: workshop-1207269058 ( Simple Health Bar DST)	Loading modmain.lua	
[00:00:03]: Event data unavailable: lavaarena_event_server/lavaarena_achievement_quest_defs
[00:00:04]: LOADING LUA SUCCESS
[00:00:04]: Registering Server mod namespace "workshop-1207269058"
[00:00:04]: Registering Server mod namespace "workshop-378160973"
[00:00:04]: PlayerDeaths could not load morgue	
[00:00:04]: PlayerHistory could not load player_history	
[00:00:04]: ServerPreferences could not load server_preferences	
[00:00:04]: bloom_enabled	false	
[00:00:04]: OnFilesLoaded()	
[00:00:04]: OnUpdatePurchaseStateComplete	
[00:00:04]: Klump load on boot started.	
[00:00:04]: Klump files loaded: 	0	
[00:00:07]: Mod: workshop-378160973 (Global Positions)	Registering prefabs	
[00:00:07]: Mod: workshop-378160973 (Global Positions)	  Registering prefab file: prefabs/globalposition_classified	
[00:00:07]: Mod: workshop-378160973 (Global Positions)	    globalposition_classified	
[00:00:07]: Mod: workshop-378160973 (Global Positions)	  Registering prefab file: prefabs/smoketrail	
[00:00:07]: Mod: workshop-378160973 (Global Positions)	    smoketrail	
[00:00:07]: Mod: workshop-378160973 (Global Positions)	  Registering prefab file: prefabs/globalmapicon_noproxy	
[00:00:07]: Mod: workshop-378160973 (Global Positions)	    globalmapicon_noproxy	
[00:00:07]: Mod: workshop-378160973 (Global Positions)	  Registering prefab file: prefabs/worldmapexplorer	
[00:00:07]: Mod: workshop-378160973 (Global Positions)	    worldmapexplorer	
[00:00:07]: Mod: workshop-378160973 (Global Positions)	  Registering prefab file: prefabs/pings	
[00:00:07]: Mod: workshop-378160973 (Global Positions)	    ping_generic	
[00:00:07]: Mod: workshop-378160973 (Global Positions)	    ping_omw	
[00:00:07]: Mod: workshop-378160973 (Global Positions)	    ping_danger	
[00:00:07]: Mod: workshop-378160973 (Global Positions)	    ping_explore	
[00:00:07]: Mod: workshop-378160973 (Global Positions)	    ping_gohere	
[00:00:07]: Mod: workshop-378160973 (Global Positions)	  Registering default mod prefab	
[00:00:08]: Mod: workshop-1207269058 ( Simple Health Bar DST)	Registering prefabs	
[00:00:08]: Mod: workshop-1207269058 ( Simple Health Bar DST)	  Registering prefab file: prefabs/dychealthbar	
[00:00:08]: Mod: workshop-1207269058 ( Simple Health Bar DST)	    dyc_damagedisplay	
[00:00:08]: Mod: workshop-1207269058 ( Simple Health Bar DST)	    dyc_healthbarchild	
[00:00:08]: Mod: workshop-1207269058 ( Simple Health Bar DST)	    dyc_healthbar	
[00:00:08]: Mod: workshop-1207269058 ( Simple Health Bar DST)	  Registering default mod prefab	
[00:00:08]: 	Load FE	
[00:00:09]: 	Load FE: done	
[00:00:09]: THREAD - started 'FilesExistAsyncThread' (9632)
[00:00:09]: FilesExistAsyncThread started (17267 files)...
[00:00:09]: Check for write access: TRUE
[00:00:09]: Check for read access: TRUE
[00:00:09]: Available disk space for save files: 70487 MB
[00:00:09]: ModIndex: Load sequence finished successfully.	
[00:00:09]: Reset() returning
[00:00:09]: [IPC] Signal 'DST_Secondary_Kill' opened  #0000077C
[00:00:09]: [IPC] Registering handler for signal #0000077C
[00:00:09]: [IPC] Handle #0000077C added to the Eventhandles
[00:00:09]: [IPC] Signal 'DST_Secondary_Starting' opened  #00000760
[00:00:09]: [IPC] Sending signal... #00000760
[00:00:10]: [200] Account Communication Success (6)
[00:00:10]: Received (KU_BRQybia2) from TokenPurpose
[00:00:10]: Starting Dedicated Server Game	
[00:00:10]: Network tick rate: U=15(2), D=0
[00:00:10]: About to start a server with the following settings:
[00:00:10]:   Dedicated: true
[00:00:10]:   Online: true
[00:00:10]:   Passworded: false
[00:00:10]:   ServerPort: 10998
[00:00:10]:   SteamAuthPort: 8767
[00:00:10]:   SteamMasterServerPort: 27017
[00:00:10]:   ClanID: false
[00:00:10]:   ClanOnly: false
[00:00:10]:   ClanAdmin: false
[00:00:10]:   LanOnly: false
[00:00:10]:   FriendsOnly: true
[00:00:10]:   EnableAutosaver: true
[00:00:10]:   EncodeUserPath: true
[00:00:10]:   PVP: false
[00:00:10]:   MaxPlayers: 6
[00:00:10]:   GameMode: survival
[00:00:10]:   OverridenDNS: 
[00:00:10]:   PauseWhenEmpty: true
[00:00:10]:   IdleTimeout: 1800s
[00:00:10]:   VoteEnabled: false
[00:00:10]:   InternetBroadcasting: true
[00:00:10]:   Intent: cooperative
[00:00:10]: [Warning] Could not confirm port 10998 is open in the firewall. 
[00:00:10]: [Shard] No shard id specified, generating a random one...
[00:00:10]: Could not load mod_config_data/modconfiguration_workshop-1207269058	
[00:00:10]: Could not load mod_config_data/modconfiguration_workshop-378160973	
[00:00:10]: Online Server Started on port: 10998
[00:00:10]: SUCCESS: Loaded modoverrides.lua	
[00:00:10]: Found a level data override file with these contents:	
[00:00:10]: 	K: 	background_node_range	 V: 	table: 0C5C58A0	
[00:00:10]: 		K: 	1	 V: 	0	
[00:00:10]: 		K: 	2	 V: 	1	
[00:00:10]: 	K: 	desc	 V: 	Delve into the caves... together!	
[00:00:10]: 	K: 	hideminimap	 V: 	false	
[00:00:10]: 	K: 	id	 V: 	DST_CAVE	
[00:00:10]: 	K: 	location	 V: 	cave	
[00:00:10]: 	K: 	max_playlist_position	 V: 	999	
[00:00:10]: 	K: 	min_playlist_position	 V: 	0	
[00:00:10]: 	K: 	name	 V: 	The Caves	
[00:00:10]: 	K: 	numrandom_set_pieces	 V: 	0	
[00:00:10]: 	K: 	override_level_string	 V: 	false	
[00:00:10]: 	K: 	overrides	 V: 	table: 0C5C5B20	
[00:00:10]: 		K: 	atriumgate	 V: 	default	
[00:00:10]: 		K: 	banana	 V: 	default	
[00:00:10]: 		K: 	bats	 V: 	default	
[00:00:10]: 		K: 	beefaloheat	 V: 	default	
[00:00:10]: 		K: 	berrybush	 V: 	default	
[00:00:10]: 		K: 	boons	 V: 	default	
[00:00:10]: 		K: 	branching	 V: 	default	
[00:00:10]: 		K: 	brightmarecreatures	 V: 	default	
[00:00:10]: 		K: 	bunnymen	 V: 	default	
[00:00:10]: 		K: 	bunnymen_setting	 V: 	default	
[00:00:10]: 		K: 	cave_ponds	 V: 	default	
[00:00:10]: 		K: 	cave_spiders	 V: 	default	
[00:00:10]: 		K: 	cavelight	 V: 	default	
[00:00:10]: 		K: 	chess	 V: 	default	
[00:00:10]: 		K: 	dropeverythingondespawn	 V: 	default	
[00:00:10]: 		K: 	dustmoths	 V: 	default	
[00:00:10]: 		K: 	earthquakes	 V: 	default	
[00:00:10]: 		K: 	extrastartingitems	 V: 	default	
[00:00:10]: 		K: 	fern	 V: 	default	
[00:00:10]: 		K: 	fissure	 V: 	default	
[00:00:10]: 		K: 	flint	 V: 	default	
[00:00:10]: 		K: 	flower_cave	 V: 	default	
[00:00:10]: 		K: 	flower_cave_regrowth	 V: 	default	
[00:00:10]: 		K: 	grass	 V: 	default	
[00:00:10]: 		K: 	grassgekkos	 V: 	default	
[00:00:10]: 		K: 	krampus	 V: 	default	
[00:00:10]: 		K: 	layout_mode	 V: 	RestrictNodesByKey	
[00:00:10]: 		K: 	lichen	 V: 	default	
[00:00:10]: 		K: 	liefs	 V: 	default	
[00:00:10]: 		K: 	lightflier_flower_regrowth	 V: 	default	
[00:00:10]: 		K: 	lightfliers	 V: 	default	
[00:00:10]: 		K: 	loop	 V: 	default	
[00:00:10]: 		K: 	marshbush	 V: 	default	
[00:00:10]: 		K: 	merms	 V: 	default	
[00:00:10]: 		K: 	molebats	 V: 	default	
[00:00:10]: 		K: 	moles_setting	 V: 	default	
[00:00:10]: 		K: 	monkey	 V: 	default	
[00:00:10]: 		K: 	monkey_setting	 V: 	default	
[00:00:10]: 		K: 	mushgnome	 V: 	default	
[00:00:10]: 		K: 	mushroom	 V: 	default	
[00:00:10]: 		K: 	mushtree	 V: 	default	
[00:00:10]: 		K: 	mushtree_moon_regrowth	 V: 	default	
[00:00:10]: 		K: 	mushtree_regrowth	 V: 	default	
[00:00:10]: 		K: 	nightmarecreatures	 V: 	default	
[00:00:10]: 		K: 	pigs_setting	 V: 	default	
[00:00:10]: 		K: 	prefabswaps_start	 V: 	default	
[00:00:10]: 		K: 	reeds	 V: 	default	
[00:00:10]: 		K: 	regrowth	 V: 	default	
[00:00:10]: 		K: 	roads	 V: 	never	
[00:00:10]: 		K: 	rock	 V: 	default	
[00:00:10]: 		K: 	rocky	 V: 	default	
[00:00:10]: 		K: 	rocky_setting	 V: 	default	
[00:00:10]: 		K: 	sapling	 V: 	default	
[00:00:10]: 		K: 	season_start	 V: 	default	
[00:00:10]: 		K: 	seasonalstartingitems	 V: 	default	
[00:00:10]: 		K: 	shadowcreatures	 V: 	default	
[00:00:10]: 		K: 	slurper	 V: 	default	
[00:00:10]: 		K: 	slurtles	 V: 	default	
[00:00:10]: 		K: 	slurtles_setting	 V: 	default	
[00:00:10]: 		K: 	snurtles	 V: 	default	
[00:00:10]: 		K: 	spawnprotection	 V: 	default	
[00:00:10]: 		K: 	specialevent	 V: 	default	
[00:00:10]: 		K: 	spider_dropper	 V: 	default	
[00:00:10]: 		K: 	spider_hider	 V: 	default	
[00:00:10]: 		K: 	spider_spitter	 V: 	default	
[00:00:10]: 		K: 	spider_warriors	 V: 	default	
[00:00:10]: 		K: 	spiderqueen	 V: 	default	
[00:00:10]: 		K: 	spiders	 V: 	default	
[00:00:10]: 		K: 	spiders_setting	 V: 	default	
[00:00:10]: 		K: 	start_location	 V: 	caves	
[00:00:10]: 		K: 	task_set	 V: 	cave_default	
[00:00:10]: 		K: 	tentacles	 V: 	default	
[00:00:10]: 		K: 	toadstool	 V: 	default	
[00:00:10]: 		K: 	touchstone	 V: 	default	
[00:00:10]: 		K: 	trees	 V: 	default	
[00:00:10]: 		K: 	weather	 V: 	default	
[00:00:10]: 		K: 	world_size	 V: 	default	
[00:00:10]: 		K: 	wormattacks	 V: 	default	
[00:00:10]: 		K: 	wormhole_prefab	 V: 	tentacle_pillar	
[00:00:10]: 		K: 	wormlights	 V: 	default	
[00:00:10]: 		K: 	worms	 V: 	default	
[00:00:10]: 	K: 	required_prefabs	 V: 	table: 0C5C59E0	
[00:00:10]: 		K: 	1	 V: 	multiplayer_portal	
[00:00:10]: 	K: 	settings_desc	 V: 	Delve into the caves... together!	
[00:00:10]: 	K: 	settings_id	 V: 	DST_CAVE	
[00:00:10]: 	K: 	settings_name	 V: 	The Caves	
[00:00:10]: 	K: 	substitutes	 V: 	table: 0C5C5AD0	
[00:00:10]: 	K: 	version	 V: 	4	
[00:00:10]: 	K: 	worldgen_desc	 V: 	Delve into the caves... together!	
[00:00:10]: 	K: 	worldgen_id	 V: 	DST_CAVE	
[00:00:10]: 	K: 	worldgen_name	 V: 	The Caves	
[00:00:10]: Loaded and applied level data override from ../leveldataoverride.lua	
[00:00:10]: Overwriting savedata with level data file.	
[00:00:10]: Not applying world gen overrides.	
[00:00:10]: Collecting garbage...
[00:00:10]: lua_gc took 0.10 seconds
[00:00:10]: ~ShardLuaProxy()
[00:00:10]: ~cEventLeaderboardProxy()
[00:00:10]: ~ItemServerLuaProxy()
[00:00:10]: ~InventoryLuaProxy()
[00:00:10]: ~NetworkLuaProxy()
[00:00:10]: ~SimLuaProxy()
[00:00:10]: FilesExistAsyncThread aborted.
[00:00:10]: ... FilesExistAsyncThread complete
[00:00:10]: lua_close took 0.14 seconds
[00:00:10]: ReleaseAll
[00:00:10]: ReleaseAll Finished
[00:00:10]: cGame::StartPlaying
[00:00:10]: LOADING LUA
[00:00:10]: DoLuaFile scripts/main.lua
[00:00:10]: DoLuaFile loading buffer scripts/main.lua
[00:00:11]:   taskgrouplist:	default	Together	
[00:00:11]:   taskgrouplist:	classic	Classic	
[00:00:11]:   taskgrouplist:	cave_default	Underground	
[00:00:11]:   taskgrouplist:	lavaarena_taskset	The Forge	
[00:00:11]:   taskgrouplist:	quagmire_taskset	The Gorge	
[00:00:11]: running main.lua
	
[00:00:11]: unloading prefabs for mod MOD_workshop-378160973	
[00:00:11]: unloading prefabs for mod MOD_workshop-1207269058	
[00:00:11]: loaded modindex	
[00:00:11]: ModIndex: Beginning normal load sequence for dedicated server.
	
[00:00:11]: SUCCESS: Loaded modoverrides.lua	
[00:00:11]: modoverrides.lua enabling workshop-1207269058	
[00:00:11]: modoverrides.lua enabling workshop-378160973	
[00:00:11]: ModIndex:GetModsToLoad inserting moddir, 	workshop-1207269058	
[00:00:11]: ModIndex:GetModsToLoad inserting moddir, 	workshop-378160973	
[00:00:11]: Could not load mod_config_data/modconfiguration_workshop-1207269058	
[00:00:11]: applying configuration_options from modoverrides.lua to mod workshop-1207269058	
[00:00:11]: applying configuration_options from modoverrides.lua to mod workshop-378160973	
[00:00:11]: Overriding mod workshop-378160973's option FIREOPTIONS with value 2	
[00:00:11]: Overriding mod workshop-378160973's option SHOWFIREICONS with value true	
[00:00:11]: Overriding mod workshop-378160973's option SHAREMINIMAPPROGRESS with value true	
[00:00:11]: Overriding mod workshop-378160973's option SHOWPLAYERICONS with value true	
[00:00:11]: Overriding mod workshop-378160973's option OVERRIDEMODE with value false	
[00:00:11]: Overriding mod workshop-378160973's option SHOWPLAYERSOPTIONS with value 2	
[00:00:11]: Overriding mod workshop-378160973's option ENABLEPINGS with value true	
[00:00:11]: Loading mod: workshop-1207269058 ( Simple Health Bar DST) Version:2.13	
[00:00:11]: Could not load mod_config_data/modconfiguration_workshop-378160973	
[00:00:11]: applying configuration_options from modoverrides.lua to mod workshop-1207269058	
[00:00:11]: applying configuration_options from modoverrides.lua to mod workshop-378160973	
[00:00:11]: Overriding mod workshop-378160973's option FIREOPTIONS with value 2	
[00:00:11]: Overriding mod workshop-378160973's option SHOWFIREICONS with value true	
[00:00:11]: Overriding mod workshop-378160973's option SHAREMINIMAPPROGRESS with value true	
[00:00:11]: Overriding mod workshop-378160973's option SHOWPLAYERICONS with value true	
[00:00:11]: Overriding mod workshop-378160973's option OVERRIDEMODE with value false	
[00:00:11]: Overriding mod workshop-378160973's option SHOWPLAYERSOPTIONS with value 2	
[00:00:11]: Overriding mod workshop-378160973's option ENABLEPINGS with value true	
[00:00:11]: Loading mod: workshop-378160973 (Global Positions) Version:1.7.3	
[00:00:11]: Mod: workshop-378160973 (Global Positions)	Loading modworldgenmain.lua	
[00:00:11]: Mod: workshop-378160973 (Global Positions)	  Mod had no modworldgenmain.lua. Skipping.	
[00:00:11]: Mod: workshop-378160973 (Global Positions)	Loading modmain.lua	
[00:00:11]: ModIndex:GetModsToLoad inserting moddir, 	workshop-1207269058	
[00:00:11]: ModIndex:GetModsToLoad inserting moddir, 	workshop-378160973	
[00:00:11]: Mod: workshop-1207269058 ( Simple Health Bar DST)	Loading modworldgenmain.lua	
[00:00:11]: Mod: workshop-1207269058 ( Simple Health Bar DST)	  Mod had no modworldgenmain.lua. Skipping.	
[00:00:11]: Mod: workshop-1207269058 ( Simple Health Bar DST)	Loading modmain.lua	
[00:00:12]: AddPortMapping(10998, 10998, 192.168.100.8) failed with code 718 (ConflictInMappingEntry)
[00:00:12]: AddPortMapping(10998, 10998, 192.168.100.8) failed with code 718 (ConflictInMappingEntry)
[00:00:13]: Event data unavailable: lavaarena_event_server/lavaarena_achievement_quest_defs
[00:00:13]: LOADING LUA SUCCESS
[00:00:13]: Registering Server mod namespace "workshop-1207269058"
[00:00:13]: Registering Server mod namespace "workshop-378160973"
[00:00:13]: PlayerDeaths could not load morgue	
[00:00:13]: PlayerHistory could not load player_history	
[00:00:13]: ServerPreferences could not load server_preferences	
[00:00:13]: bloom_enabled	false	
[00:00:13]: OnFilesLoaded()	
[00:00:13]: OnUpdatePurchaseStateComplete	
[00:00:13]: SUCCESS: Loaded modoverrides.lua	
[00:00:13]: Found a level data override file with these contents:	
[00:00:13]: 	K: 	background_node_range	 V: 	table: 09F6AF78	
[00:00:13]: 		K: 	1	 V: 	0	
[00:00:13]: 		K: 	2	 V: 	1	
[00:00:13]: 	K: 	desc	 V: 	Delve into the caves... together!	
[00:00:13]: 	K: 	hideminimap	 V: 	false	
[00:00:13]: 	K: 	id	 V: 	DST_CAVE	
[00:00:13]: 	K: 	location	 V: 	cave	
[00:00:13]: 	K: 	max_playlist_position	 V: 	999	
[00:00:13]: 	K: 	min_playlist_position	 V: 	0	
[00:00:13]: 	K: 	name	 V: 	The Caves	
[00:00:13]: 	K: 	numrandom_set_pieces	 V: 	0	
[00:00:13]: 	K: 	override_level_string	 V: 	false	
[00:00:13]: 	K: 	overrides	 V: 	table: 09F6B3D8	
[00:00:13]: 		K: 	atriumgate	 V: 	default	
[00:00:13]: 		K: 	banana	 V: 	default	
[00:00:13]: 		K: 	bats	 V: 	default	
[00:00:13]: 		K: 	beefaloheat	 V: 	default	
[00:00:13]: 		K: 	berrybush	 V: 	default	
[00:00:13]: 		K: 	boons	 V: 	default	
[00:00:13]: 		K: 	branching	 V: 	default	
[00:00:13]: 		K: 	brightmarecreatures	 V: 	default	
[00:00:13]: 		K: 	bunnymen	 V: 	default	
[00:00:13]: 		K: 	bunnymen_setting	 V: 	default	
[00:00:13]: 		K: 	cave_ponds	 V: 	default	
[00:00:13]: 		K: 	cave_spiders	 V: 	default	
[00:00:13]: 		K: 	cavelight	 V: 	default	
[00:00:13]: 		K: 	chess	 V: 	default	
[00:00:13]: 		K: 	dropeverythingondespawn	 V: 	default	
[00:00:13]: 		K: 	dustmoths	 V: 	default	
[00:00:13]: 		K: 	earthquakes	 V: 	default	
[00:00:13]: 		K: 	extrastartingitems	 V: 	default	
[00:00:13]: 		K: 	fern	 V: 	default	
[00:00:13]: 		K: 	fissure	 V: 	default	
[00:00:13]: 		K: 	flint	 V: 	default	
[00:00:13]: 		K: 	flower_cave	 V: 	default	
[00:00:13]: 		K: 	flower_cave_regrowth	 V: 	default	
[00:00:13]: 		K: 	grass	 V: 	default	
[00:00:13]: 		K: 	grassgekkos	 V: 	default	
[00:00:13]: 		K: 	krampus	 V: 	default	
[00:00:13]: 		K: 	layout_mode	 V: 	RestrictNodesByKey	
[00:00:13]: 		K: 	lichen	 V: 	default	
[00:00:13]: 		K: 	liefs	 V: 	default	
[00:00:13]: 		K: 	lightflier_flower_regrowth	 V: 	default	
[00:00:13]: 		K: 	lightfliers	 V: 	default	
[00:00:13]: 		K: 	loop	 V: 	default	
[00:00:13]: 		K: 	marshbush	 V: 	default	
[00:00:13]: 		K: 	merms	 V: 	default	
[00:00:13]: 		K: 	molebats	 V: 	default	
[00:00:13]: 		K: 	moles_setting	 V: 	default	
[00:00:13]: 		K: 	monkey	 V: 	default	
[00:00:13]: 		K: 	monkey_setting	 V: 	default	
[00:00:13]: 		K: 	mushgnome	 V: 	default	
[00:00:13]: 		K: 	mushroom	 V: 	default	
[00:00:13]: 		K: 	mushtree	 V: 	default	
[00:00:13]: 		K: 	mushtree_moon_regrowth	 V: 	default	
[00:00:13]: 		K: 	mushtree_regrowth	 V: 	default	
[00:00:13]: 		K: 	nightmarecreatures	 V: 	default	
[00:00:13]: 		K: 	pigs_setting	 V: 	default	
[00:00:13]: 		K: 	prefabswaps_start	 V: 	default	
[00:00:13]: 		K: 	reeds	 V: 	default	
[00:00:13]: 		K: 	regrowth	 V: 	default	
[00:00:13]: 		K: 	roads	 V: 	never	
[00:00:13]: 		K: 	rock	 V: 	default	
[00:00:13]: 		K: 	rocky	 V: 	default	
[00:00:13]: 		K: 	rocky_setting	 V: 	default	
[00:00:13]: 		K: 	sapling	 V: 	default	
[00:00:13]: 		K: 	season_start	 V: 	default	
[00:00:13]: 		K: 	seasonalstartingitems	 V: 	default	
[00:00:13]: 		K: 	shadowcreatures	 V: 	default	
[00:00:13]: 		K: 	slurper	 V: 	default	
[00:00:13]: 		K: 	slurtles	 V: 	default	
[00:00:13]: 		K: 	slurtles_setting	 V: 	default	
[00:00:13]: 		K: 	snurtles	 V: 	default	
[00:00:13]: 		K: 	spawnprotection	 V: 	default	
[00:00:13]: 		K: 	specialevent	 V: 	default	
[00:00:13]: 		K: 	spider_dropper	 V: 	default	
[00:00:13]: 		K: 	spider_hider	 V: 	default	
[00:00:13]: 		K: 	spider_spitter	 V: 	default	
[00:00:13]: 		K: 	spider_warriors	 V: 	default	
[00:00:13]: 		K: 	spiderqueen	 V: 	default	
[00:00:13]: 		K: 	spiders	 V: 	default	
[00:00:13]: 		K: 	spiders_setting	 V: 	default	
[00:00:13]: 		K: 	start_location	 V: 	caves	
[00:00:13]: 		K: 	task_set	 V: 	cave_default	
[00:00:13]: 		K: 	tentacles	 V: 	default	
[00:00:13]: 		K: 	toadstool	 V: 	default	
[00:00:13]: 		K: 	touchstone	 V: 	default	
[00:00:13]: 		K: 	trees	 V: 	default	
[00:00:13]: 		K: 	weather	 V: 	default	
[00:00:13]: 		K: 	world_size	 V: 	default	
[00:00:13]: 		K: 	wormattacks	 V: 	default	
[00:00:13]: 		K: 	wormhole_prefab	 V: 	tentacle_pillar	
[00:00:13]: 		K: 	wormlights	 V: 	default	
[00:00:13]: 		K: 	worms	 V: 	default	
[00:00:13]: 	K: 	required_prefabs	 V: 	table: 09F6B400	
[00:00:13]: 		K: 	1	 V: 	multiplayer_portal	
[00:00:13]: 	K: 	settings_desc	 V: 	Delve into the caves... together!	
[00:00:13]: 	K: 	settings_id	 V: 	DST_CAVE	
[00:00:13]: 	K: 	settings_name	 V: 	The Caves	
[00:00:13]: 	K: 	substitutes	 V: 	table: 09F6B1A8	
[00:00:13]: 	K: 	version	 V: 	4	
[00:00:13]: 	K: 	worldgen_desc	 V: 	Delve into the caves... together!	
[00:00:13]: 	K: 	worldgen_id	 V: 	DST_CAVE	
[00:00:13]: 	K: 	worldgen_name	 V: 	The Caves	
[00:00:13]: Loaded and applied level data override from ../leveldataoverride.lua	
[00:00:13]: Overwriting savedata with level data file.	
[00:00:13]: Not applying world gen overrides.	
[00:00:13]: [IPC] Signal 'DST_Secondary_WorldGen' opened  #0000063C
[00:00:13]: [IPC] Sending signal... #0000063C
[00:00:13]: WorldSim::SimThread::SimThread()
[00:00:13]: ABOUT TO INSTALL STACKTRACE
[00:00:13]: DoLuaFile scripts/stacktrace.lua
[00:00:13]: DoLuaFile loading buffer scripts/stacktrace.lua
[00:00:13]: INSTALLED STACKTRACE
[00:00:13]: WorldSim::SimThread::SimThread() complete
[00:00:13]: THREAD - started 'WorldSim' (5772)
[00:00:13]: WorldSim::SimThread::Main()
[00:00:13]: DoLuaFile scripts/worldgen_main.lua
[00:00:13]: DoLuaFile loading buffer scripts/worldgen_main.lua
[00:00:13]: Check for write access: TRUE
[00:00:13]: Check for read access: TRUE
[00:00:13]: Available disk space for save files: 70487 MB
[00:00:13]: ModIndex: Load sequence finished successfully.	
[00:00:13]: Reset() returning
[00:00:13]: DLC enabled : 	false	
[00:00:14]:   taskgrouplist:	default	Together	
[00:00:14]:   taskgrouplist:	classic	Classic	
[00:00:14]:   taskgrouplist:	cave_default	Underground	
[00:00:14]:   taskgrouplist:	lavaarena_taskset	The Forge	
[00:00:14]:   taskgrouplist:	quagmire_taskset	The Gorge	
[00:00:14]: ModIndex:GetModsToLoad inserting modname, 	workshop-1207269058	
[00:00:14]: ModIndex:GetModsToLoad inserting modname, 	workshop-378160973	
[00:00:14]: Loading mod: workshop-1207269058 ( Simple Health Bar DST) Version:2.13	
[00:00:14]: Loading mod: workshop-378160973 (Global Positions) Version:1.7.3	
[00:00:14]: Mod: workshop-378160973 (Global Positions)	Loading modworldgenmain.lua	
[00:00:14]: Mod: workshop-378160973 (Global Positions)	  Mod had no modworldgenmain.lua. Skipping.	
[00:00:14]: Mod: workshop-1207269058 ( Simple Health Bar DST)	Loading modworldgenmain.lua	
[00:00:14]: Mod: workshop-1207269058 ( Simple Health Bar DST)	  Mod had no modworldgenmain.lua. Skipping.	
[00:00:14]: running worldgen_main.lua
	
[00:00:14]: SEED = 	1615611474	
[00:00:14]: Generating world with these parameters:	
[00:00:14]: level_type	SURVIVAL	
[00:00:14]: level_data:	
[00:00:14]: 	K: 	background_node_range	 V: 	table: 0B7DDAA0	
[00:00:14]: 		K: 	1	 V: 	0	
[00:00:14]: 		K: 	2	 V: 	1	
[00:00:14]: 	K: 	desc	 V: 	Delve into the caves... together!	
[00:00:14]: 	K: 	hideminimap	 V: 	false	
[00:00:14]: 	K: 	id	 V: 	DST_CAVE	
[00:00:14]: 	K: 	location	 V: 	cave	
[00:00:14]: 	K: 	max_playlist_position	 V: 	999	
[00:00:14]: 	K: 	min_playlist_position	 V: 	0	
[00:00:14]: 	K: 	name	 V: 	The Caves	
[00:00:14]: 	K: 	numrandom_set_pieces	 V: 	0	
[00:00:14]: 	K: 	override_level_string	 V: 	false	
[00:00:14]: 	K: 	overrides	 V: 	table: 0B7DDE38	
[00:00:14]: 		K: 	atriumgate	 V: 	default	
[00:00:14]: 		K: 	banana	 V: 	default	
[00:00:14]: 		K: 	bats	 V: 	default	
[00:00:14]: 		K: 	beefaloheat	 V: 	default	
[00:00:14]: 		K: 	berrybush	 V: 	default	
[00:00:14]: 		K: 	boons	 V: 	default	
[00:00:14]: 		K: 	branching	 V: 	default	
[00:00:14]: 		K: 	brightmarecreatures	 V: 	default	
[00:00:14]: 		K: 	bunnymen	 V: 	default	
[00:00:14]: 		K: 	bunnymen_setting	 V: 	default	
[00:00:14]: 		K: 	cave_ponds	 V: 	default	
[00:00:14]: 		K: 	cave_spiders	 V: 	default	
[00:00:14]: 		K: 	cavelight	 V: 	default	
[00:00:14]: 		K: 	chess	 V: 	default	
[00:00:14]: 		K: 	dropeverythingondespawn	 V: 	default	
[00:00:14]: 		K: 	dustmoths	 V: 	default	
[00:00:14]: 		K: 	earthquakes	 V: 	default	
[00:00:14]: 		K: 	extrastartingitems	 V: 	default	
[00:00:14]: 		K: 	fern	 V: 	default	
[00:00:14]: 		K: 	fissure	 V: 	default	
[00:00:14]: 		K: 	flint	 V: 	default	
[00:00:14]: 		K: 	flower_cave	 V: 	default	
[00:00:14]: 		K: 	flower_cave_regrowth	 V: 	default	
[00:00:14]: 		K: 	grass	 V: 	default	
[00:00:14]: 		K: 	grassgekkos	 V: 	default	
[00:00:14]: 		K: 	krampus	 V: 	default	
[00:00:14]: 		K: 	layout_mode	 V: 	RestrictNodesByKey	
[00:00:14]: 		K: 	lichen	 V: 	default	
[00:00:14]: 		K: 	liefs	 V: 	default	
[00:00:14]: 		K: 	lightflier_flower_regrowth	 V: 	default	
[00:00:14]: 		K: 	lightfliers	 V: 	default	
[00:00:14]: 		K: 	loop	 V: 	default	
[00:00:14]: 		K: 	marshbush	 V: 	default	
[00:00:14]: 		K: 	merms	 V: 	default	
[00:00:14]: 		K: 	molebats	 V: 	default	
[00:00:14]: 		K: 	moles_setting	 V: 	default	
[00:00:14]: 		K: 	monkey	 V: 	default	
[00:00:14]: 		K: 	monkey_setting	 V: 	default	
[00:00:14]: 		K: 	mushgnome	 V: 	default	
[00:00:14]: 		K: 	mushroom	 V: 	default	
[00:00:14]: 		K: 	mushtree	 V: 	default	
[00:00:14]: 		K: 	mushtree_moon_regrowth	 V: 	default	
[00:00:14]: 		K: 	mushtree_regrowth	 V: 	default	
[00:00:14]: 		K: 	nightmarecreatures	 V: 	default	
[00:00:14]: 		K: 	pigs_setting	 V: 	default	
[00:00:14]: 		K: 	prefabswaps_start	 V: 	default	
[00:00:14]: 		K: 	reeds	 V: 	default	
[00:00:14]: 		K: 	regrowth	 V: 	default	
[00:00:14]: 		K: 	roads	 V: 	never	
[00:00:14]: 		K: 	rock	 V: 	default	
[00:00:14]: 		K: 	rocky	 V: 	default	
[00:00:14]: 		K: 	rocky_setting	 V: 	default	
[00:00:14]: 		K: 	sapling	 V: 	default	
[00:00:14]: 		K: 	season_start	 V: 	default	
[00:00:14]: 		K: 	seasonalstartingitems	 V: 	default	
[00:00:14]: 		K: 	shadowcreatures	 V: 	default	
[00:00:14]: 		K: 	slurper	 V: 	default	
[00:00:14]: 		K: 	slurtles	 V: 	default	
[00:00:14]: 		K: 	slurtles_setting	 V: 	default	
[00:00:14]: 		K: 	snurtles	 V: 	default	
[00:00:14]: 		K: 	spawnprotection	 V: 	default	
[00:00:14]: 		K: 	specialevent	 V: 	default	
[00:00:14]: 		K: 	spider_dropper	 V: 	default	
[00:00:14]: 		K: 	spider_hider	 V: 	default	
[00:00:14]: 		K: 	spider_spitter	 V: 	default	
[00:00:14]: 		K: 	spider_warriors	 V: 	default	
[00:00:14]: 		K: 	spiderqueen	 V: 	default	
[00:00:14]: 		K: 	spiders	 V: 	default	
[00:00:14]: 		K: 	spiders_setting	 V: 	default	
[00:00:14]: 		K: 	start_location	 V: 	caves	
[00:00:14]: 		K: 	task_set	 V: 	cave_default	
[00:00:14]: 		K: 	tentacles	 V: 	default	
[00:00:14]: 		K: 	toadstool	 V: 	default	
[00:00:14]: 		K: 	touchstone	 V: 	default	
[00:00:14]: 		K: 	trees	 V: 	default	
[00:00:14]: 		K: 	weather	 V: 	default	
[00:00:14]: 		K: 	world_size	 V: 	default	
[00:00:14]: 		K: 	wormattacks	 V: 	default	
[00:00:14]: 		K: 	wormhole_prefab	 V: 	tentacle_pillar	
[00:00:14]: 		K: 	wormlights	 V: 	default	
[00:00:14]: 		K: 	worms	 V: 	default	
[00:00:14]: 	K: 	required_prefabs	 V: 	table: 0B7DDD48	
[00:00:14]: 		K: 	1	 V: 	multiplayer_portal	
[00:00:14]: 	K: 	settings_desc	 V: 	Delve into the caves... together!	
[00:00:14]: 	K: 	settings_id	 V: 	DST_CAVE	
[00:00:14]: 	K: 	settings_name	 V: 	The Caves	
[00:00:14]: 	K: 	substitutes	 V: 	table: 0B7DDC80	
[00:00:14]: 	K: 	version	 V: 	4	
[00:00:14]: 	K: 	worldgen_desc	 V: 	Delve into the caves... together!	
[00:00:14]: 	K: 	worldgen_id	 V: 	DST_CAVE	
[00:00:14]: 	K: 	worldgen_name	 V: 	The Caves	
[00:00:14]: 
#######
#
# Generating SURVIVAL Mode Level
#
#######
	
[00:00:14]: Prefab Swap Selection: regular grass	
[00:00:14]: Prefab Swap Selection: regular twigs	
[00:00:14]: Prefab Swap Selection: juicy berries	
[00:00:14]: New size:	425	default	
[00:00:14]: Creating story...	
[00:00:14]: [Story Gen] Generate nodes. Starting at: 'MudWorld'	
[00:00:14]: [Story Gen] RestrictNodesByKey	
[00:00:14]: Finding valid start task...	
[00:00:14]:    ...picked 	CaveExitTask10	
[00:00:14]: Has start node	GreenMushSinkhole	
[00:00:14]: Adding Background Nodes	
[00:00:14]: [Story Gen] Adding Cove Nodes	
[00:00:14]: [WorldSimActual::WorldGen_InitializeNodePoints]
[00:00:14]: [WorldSimActual::WorldGen_VoronoiPass]
[00:00:14]: GenerateVoronoiMap [100]:
[00:00:20]: ...Done.
[00:00:20]: ... story created	
[00:00:20]: Baking map...	425	
[00:00:20]: [WorldSimActual::WorldGen_Commit] worldgen success.
[00:00:20]: [WorldSimActual::ConvertToTileMap]
[00:00:20]: [ConvertToTileMap]
[00:00:20]: [WorldSimActual::ConvertToTileMap] complete
[00:00:20]: [WorldSimActual::SeparateIslands]
[00:00:20]: [SeparateIslands]
[00:00:20]: [WorldSimActual::SeparateIslands] complete
[00:00:20]: Map Baked!	
[00:00:20]: [WorldSimActual::ForceConnectivity]
[00:00:20]: [GenerateLandmasses]
[00:00:20]: [GenerateLandmasses] islands: 14
[00:00:20]: [MergeConnectedLandmasses] true
[00:00:20]: [WorldSimActual::ForceConnectivity] complete
[00:00:20]: Encoding...	
[00:00:21]: [WorldSimActual::CreateNodeIdTileMap]
[00:00:21]: Encoding... DONE	
[00:00:21]: Checking Tags	
[00:00:21]: Populating voronoi...	
[00:00:21]: Warning! Could not find a spot for EvergreenSinkhole in node CaveExitTask6:1:SinkholeCopses	
[00:00:21]: Warning! Could not find a spot for EvergreenSinkhole in node CaveExitTask6:1:SinkholeCopses	
[00:00:21]: Warning! Could not find a spot for EvergreenSinkhole in node SwampySinkhole:4:TentaclesAndTrees	
[00:00:21]: Warning! Could not find a spot for EvergreenSinkhole in node SwampySinkhole:4:TentaclesAndTrees	
[00:00:21]: Warning! Could not find a spot for CornerWall2 in node Residential2:3:Vacant	
[00:00:21]: Warning! Could not find a spot for StraightWall in node Residential:4:Vacant	
[00:00:21]: Warning! Could not find a spot for StraightWall2 in node Residential:4:Vacant	
[00:00:21]: Warning! Could not find a spot for StraightWall2 in node Residential:4:Vacant	
[00:00:21]: Warning! Could not find a spot for StraightWall2 in node Residential:4:Vacant	
[00:00:21]: Warning! Could not find a spot for CornerWall2 in node Residential:4:Vacant	
[00:00:21]: Warning! Could not find a spot for CornerWall2 in node Residential:4:Vacant	
[00:00:21]: Warning! Could not find a spot for GrassySinkhole in node PleasantSinkhole:4:GrasslandSinkhole	
[00:00:21]: Warning! Could not find a spot for StraightWall in node Residential:2:Vacant	
[00:00:21]: Warning! Could not find a spot for StraightWall2 in node Residential:2:Vacant	
[00:00:21]: Warning! Could not find a spot for StraightWall2 in node Residential:2:Vacant	
[00:00:21]: Warning! Could not find a spot for CornerWall2 in node Residential:2:Vacant	
[00:00:21]: Warning! Could not find a spot for CornerWall2 in node Residential:2:Vacant	
[00:00:21]: Warning! Could not find a spot for RabbitCity in node RabbitCity:5:RabbitCity	
[00:00:21]: Warning! Could not find a spot for RabbitTown in node RabbitCity:0:RabbitTown	
[00:00:21]: Warning! Could not find a spot for GrassySinkhole in node PleasantSinkhole:3:GrasslandSinkhole	
[00:00:21]: Warning! Could not find a spot for GrassySinkhole in node PleasantSinkhole:5:GrasslandSinkhole	
[00:00:21]: Warning! Could not find a spot for StraightWall2 in node Residential:3:Vacant	
[00:00:21]: Warning! Could not find a spot for CornerWall2 in node Residential:3:Vacant	
[00:00:21]: Warning! Could not find a spot for CornerWall2 in node Residential:3:Vacant	
[00:00:21]: Warning! Could not find a spot for Mudlights in node SwampySinkhole:3:TentacleMud	
[00:00:21]: Warning! Could not find a spot for Mudlights in node SwampySinkhole:3:TentacleMud	
[00:00:21]: Warning! Could not find a spot for EvergreenSinkhole in node UndergroundForest:0:SinkholeCopses	
[00:00:21]: Warning! Could not find a spot for EvergreenSinkhole in node UndergroundForest:0:SinkholeCopses	
[00:00:21]: [ReplaceSingleNonLandTiles] Validating...
[00:00:21]: [ReplaceSingleNonLandTiles] Replaced 48 tiles.
[00:00:21]: disconnected tiles...	964	
[00:00:22]: Removing entity on IMPASSABLE		363.295	189.265	603.18, 0, -92.94	
[00:00:22]: Checking Required Prefab atrium_gate has at least 1 instances (1 found).	
[00:00:22]: Checking Required Prefab archive_orchestrina_main has at least 1 instances (1 found).	
[00:00:22]: Checking Required Prefab multiplayer_portal has at least 1 instances (1 found).	
[00:00:22]: Checking Required Prefab minotaur_spawner has at least 1 instances (1 found).	
[00:00:22]: Checking Required Prefab sacred_chest has at least 1 instances (1 found).	
[00:00:22]: [ReplaceSingleNonLandTiles] Validating...
[00:00:22]: [ReplaceSingleNonLandTiles] Replaced 0 tiles.
[00:00:22]: Done cave map gen!	
[00:00:22]: Checking map...	
[00:00:22]: Generation complete	
[00:00:22]: WorldSim::SimThread::Main() complete
[00:00:22]: Serializing world: session/6F22593E99466731/0000000002
[00:00:22]: Klump load on boot started.	
[00:00:22]: Klump files loaded: 	0	
[00:00:22]: 	Unload FE	
[00:00:22]: 	Unload FE done	
[00:00:27]: Mod: workshop-378160973 (Global Positions)	Registering prefabs	
[00:00:27]: Mod: workshop-378160973 (Global Positions)	  Registering prefab file: prefabs/globalposition_classified	
[00:00:27]: Mod: workshop-378160973 (Global Positions)	    globalposition_classified	
[00:00:27]: Mod: workshop-378160973 (Global Positions)	  Registering prefab file: prefabs/smoketrail	
[00:00:27]: Mod: workshop-378160973 (Global Positions)	    smoketrail	
[00:00:27]: Mod: workshop-378160973 (Global Positions)	  Registering prefab file: prefabs/globalmapicon_noproxy	
[00:00:27]: Mod: workshop-378160973 (Global Positions)	    globalmapicon_noproxy	
[00:00:27]: Mod: workshop-378160973 (Global Positions)	  Registering prefab file: prefabs/worldmapexplorer	
[00:00:27]: Mod: workshop-378160973 (Global Positions)	    worldmapexplorer	
[00:00:27]: Mod: workshop-378160973 (Global Positions)	  Registering prefab file: prefabs/pings	
[00:00:27]: Mod: workshop-378160973 (Global Positions)	    ping_generic	
[00:00:27]: Mod: workshop-378160973 (Global Positions)	    ping_omw	
[00:00:27]: Mod: workshop-378160973 (Global Positions)	    ping_danger	
[00:00:27]: Mod: workshop-378160973 (Global Positions)	    ping_explore	
[00:00:27]: Mod: workshop-378160973 (Global Positions)	    ping_gohere	
[00:00:27]: Mod: workshop-378160973 (Global Positions)	  Registering default mod prefab	
[00:00:27]: Mod: workshop-1207269058 ( Simple Health Bar DST)	Registering prefabs	
[00:00:27]: Mod: workshop-1207269058 ( Simple Health Bar DST)	  Registering prefab file: prefabs/dychealthbar	
[00:00:27]: Mod: workshop-1207269058 ( Simple Health Bar DST)	    dyc_damagedisplay	
[00:00:27]: Mod: workshop-1207269058 ( Simple Health Bar DST)	    dyc_healthbarchild	
[00:00:27]: Mod: workshop-1207269058 ( Simple Health Bar DST)	    dyc_healthbar	
[00:00:27]: Mod: workshop-1207269058 ( Simple Health Bar DST)	  Registering default mod prefab	
[00:00:27]: 	LOAD BE	
[00:00:33]: 	LOAD BE: done	
[00:00:33]: Begin Session: 6F22593E99466731
[00:00:33]: saving to server_temp/server_save	
[00:00:34]: MiniMapComponent::AddAtlas( minimap/minimap_data.xml )
[00:00:34]: MiniMapComponent::AddAtlas( ../mods/workshop-378160973/minimap/campfire.xml )
[00:00:34]: MiniMapComponent::AddAtlas( ../mods/workshop-378160973/minimap/ping_generic.xml )
[00:00:34]: MiniMapComponent::AddAtlas( ../mods/workshop-378160973/minimap/ping_gohere.xml )
[00:00:34]: MiniMapComponent::AddAtlas( ../mods/workshop-378160973/minimap/ping_explore.xml )
[00:00:34]: MiniMapComponent::AddAtlas( ../mods/workshop-378160973/minimap/ping_danger.xml )
[00:00:34]: MiniMapComponent::AddAtlas( ../mods/workshop-378160973/minimap/ping_omw.xml )
[00:00:34]: Loading 17 new character(s)	
[00:00:35]: Total 17 character(s) loaded	
[00:00:41]: Loading Nav Grid	
[00:00:41]: World generated on build 455744 with save version: 5.064, using seed: 1615611474	
[00:00:41]: [Shard] Secondary shard is waiting for LUA...
[00:00:42]: Can't find prefab archive_sound_area	
[00:00:42]: SpawnSaveRecord [nil, archive_sound_area] FAILED	
[00:00:42]: Can't find prefab archive_sound_area	
[00:00:42]: SpawnSaveRecord [nil, archive_sound_area] FAILED	
[00:00:42]: Can't find prefab archive_sound_area	
[00:00:42]: SpawnSaveRecord [nil, archive_sound_area] FAILED	
[00:00:45]: SWITCHING 	false	
[00:00:46]: Reconstructing topology	
[00:00:46]: 	...Sorting points	
[00:00:46]: 	...Sorting edges	
[00:00:46]: 	...Connecting nodes	
[00:00:46]: 	...Validating connections	
[00:00:46]: 	...Housekeeping	
[00:00:46]: 	...Done!	
[00:00:46]: 1 uploads added to server. From server_temp
[00:00:46]: About to start a shard with these settings:
[00:00:46]:   ShardName: Caves
[00:00:46]:   ShardID: 4193895732
[00:00:46]:   ShardRole: SECONDARY
[00:00:46]:   MasterHost: 127.0.0.1
[00:00:46]:   MasterBind: (null)
[00:00:46]:   MasterPort: 10888
[00:00:46]: [Shard] Connecting to master...
[00:00:46]: Telling Client our new session identifier: 6F22593E99466731
[00:00:46]: [Shard] Sending secondary shard information to master...
[00:00:46]: Validating portal[1] <-> <nil>[1] (inactive)	
[00:00:46]: Validating portal[2] <-> <nil>[2] (inactive)	
[00:00:47]: Validating portal[3] <-> <nil>[3] (inactive)	
[00:00:47]: Validating portal[4] <-> <nil>[4] (inactive)	
[00:00:47]: Validating portal[5] <-> <nil>[5] (inactive)	
[00:00:47]: Validating portal[6] <-> <nil>[6] (inactive)	
[00:00:47]: Validating portal[7] <-> <nil>[7] (inactive)	
[00:00:47]: Validating portal[8] <-> <nil>[8] (inactive)	
[00:00:47]: Validating portal[9] <-> <nil>[9] (inactive)	
[00:00:47]: Validating portal[10] <-> <nil>[10] (inactive)	
[00:00:47]: Registering secondary shard in US lobby
[00:00:48]: [Shard] secondary shard is now ready!
[00:00:48]: World 1 is now connected	
[00:00:48]: Validating portal[1] <-> 1[1] (active)	
[00:00:48]: Validating portal[2] <-> 1[2] (active)	
[00:00:48]: Validating portal[3] <-> 1[3] (active)	
[00:00:48]: Validating portal[4] <-> 1[4] (active)	
[00:00:48]: Validating portal[5] <-> 1[5] (active)	
[00:00:48]: Validating portal[6] <-> 1[6] (active)	
[00:00:48]: Validating portal[7] <-> 1[7] (active)	
[00:00:48]: Validating portal[8] <-> 1[8] (active)	
[00:00:48]: Validating portal[9] <-> 1[9] (active)	
[00:00:48]: Validating portal[10] <-> 1[10] (active)	
[00:00:49]: [Shard] secondary shard LUA is now ready!
[00:00:49]: [IPC] Signal 'DST_Secondary_Ready' opened  #000006BC
[00:00:49]: [IPC] Sending signal... #000006BC
[00:00:49]: Synchronizing forward to master snapshot 94	
[00:00:49]: Available disk space for save files: 70478 MB
[00:00:49]: Serializing world: session/6F22593E99466731/0000000094
[00:00:49]: Truncating to snapshot #94...
[00:00:49]:  - session/6F22593E99466731/0000000002
[00:00:49]:    1 file(s) removed
[00:00:49]: Sim paused
[00:01:15]: Sim unpaused
[00:05:47]: Registering secondary shard in US lobby
[00:06:10]: Available disk space for save files: 70471 MB
[00:06:11]: Serializing world: session/6F22593E99466731/0000000095
[00:10:47]: Registering secondary shard in US lobby
[00:14:11]: Available disk space for save files: 70454 MB
[00:14:11]: Serializing world: session/6F22593E99466731/0000000096
[00:15:47]: Registering secondary shard in US lobby
[00:20:47]: Registering secondary shard in US lobby
[00:22:12]: Available disk space for save files: 70437 MB
[00:22:12]: Serializing world: session/6F22593E99466731/0000000097
[00:25:47]: Registering secondary shard in US lobby
[00:30:10]: [200] Account Communication Success (6)
[00:30:10]: Received (KU_BRQybia2) from TokenPurpose
[00:30:12]: Available disk space for save files: 70421 MB
[00:30:13]: Serializing world: session/6F22593E99466731/0000000098
[00:30:47]: Registering secondary shard in US lobby
[00:35:47]: Registering secondary shard in US lobby
[00:38:13]: Available disk space for save files: 70405 MB
[00:38:13]: Serializing world: session/6F22593E99466731/0000000099
[00:40:47]: Registering secondary shard in US lobby
[00:45:47]: Registering secondary shard in US lobby
[00:46:14]: Available disk space for save files: 70387 MB
[00:46:14]: Serializing world: session/6F22593E99466731/0000000100
[00:46:14]: Truncating to snapshot #100...
[00:46:14]:  - session/6F22593E99466731/0000000094
[00:46:14]:    1 file(s) removed
[00:50:47]: Registering secondary shard in US lobby
[00:54:14]: Available disk space for save files: 70373 MB
[00:54:15]: Serializing world: session/6F22593E99466731/0000000101
[00:54:15]: Truncating to snapshot #101...
[00:54:15]:  - session/6F22593E99466731/0000000095
[00:54:15]:    1 file(s) removed
[00:55:47]: Registering secondary shard in US lobby
[01:00:10]: [200] Account Communication Success (6)
[01:00:10]: Received (KU_BRQybia2) from TokenPurpose
[01:00:47]: Registering secondary shard in US lobby
[01:02:15]: Available disk space for save files: 70365 MB
[01:02:15]: Serializing world: session/6F22593E99466731/0000000102
[01:02:15]: Truncating to snapshot #102...
[01:02:15]:  - session/6F22593E99466731/0000000096
[01:02:15]:    1 file(s) removed
[01:05:47]: Registering secondary shard in US lobby
[01:10:15]: Available disk space for save files: 70334 MB
[01:10:16]: Serializing world: session/6F22593E99466731/0000000103
[01:10:16]: Truncating to snapshot #103...
[01:10:16]:  - session/6F22593E99466731/0000000097
[01:10:16]:    1 file(s) removed
[01:10:47]: Registering secondary shard in US lobby
[01:15:47]: Registering secondary shard in US lobby
[01:18:16]: Available disk space for save files: 70326 MB
[01:18:17]: Serializing world: session/6F22593E99466731/0000000104
[01:18:17]: Truncating to snapshot #104...
[01:18:17]:  - session/6F22593E99466731/0000000098
[01:18:17]:    1 file(s) removed
[01:20:47]: Registering secondary shard in US lobby
[01:25:47]: Registering secondary shard in US lobby
[01:26:17]: Available disk space for save files: 70319 MB
[01:26:17]: Serializing world: session/6F22593E99466731/0000000105
[01:26:17]: Truncating to snapshot #105...
[01:26:17]:  - session/6F22593E99466731/0000000099
[01:26:17]:    1 file(s) removed
[01:30:10]: [200] Account Communication Success (6)
[01:30:10]: Received (KU_BRQybia2) from TokenPurpose
[01:30:47]: Registering secondary shard in US lobby
[01:34:18]: Available disk space for save files: 70313 MB
[01:34:18]: Serializing world: session/6F22593E99466731/0000000106
[01:34:18]: Truncating to snapshot #106...
[01:34:18]:  - session/6F22593E99466731/0000000100
[01:34:18]:    1 file(s) removed
[01:35:47]: Registering secondary shard in US lobby
[01:40:47]: Registering secondary shard in US lobby
[01:42:18]: Available disk space for save files: 70305 MB
[01:42:19]: Serializing world: session/6F22593E99466731/0000000107
[01:42:19]: Truncating to snapshot #107...
[01:42:19]:  - session/6F22593E99466731/0000000101
[01:42:19]:    1 file(s) removed
[01:45:47]: Registering secondary shard in US lobby
[01:50:19]: Available disk space for save files: 70298 MB
[01:50:19]: Serializing world: session/6F22593E99466731/0000000108
[01:50:19]: Truncating to snapshot #108...
[01:50:19]:  - session/6F22593E99466731/0000000102
[01:50:19]:    1 file(s) removed
[01:50:47]: Registering secondary shard in US lobby
[01:55:47]: Registering secondary shard in US lobby
[01:58:19]: Available disk space for save files: 70292 MB
[01:58:20]: Serializing world: session/6F22593E99466731/0000000109
[01:58:20]: Truncating to snapshot #109...
[01:58:20]:  - session/6F22593E99466731/0000000103
[01:58:20]:    1 file(s) removed
[02:00:10]: [200] Account Communication Success (6)
[02:00:10]: Received (KU_BRQybia2) from TokenPurpose
[02:00:47]: Registering secondary shard in US lobby
[02:05:47]: Registering secondary shard in US lobby
[02:06:20]: Available disk space for save files: 70206 MB
[02:06:21]: Serializing world: session/6F22593E99466731/0000000110
[02:06:21]: Truncating to snapshot #110...
[02:06:21]:  - session/6F22593E99466731/0000000104
[02:06:21]:    1 file(s) removed
[02:10:47]: Registering secondary shard in US lobby
[02:14:21]: Available disk space for save files: 70200 MB
[02:14:21]: Serializing world: session/6F22593E99466731/0000000111
[02:14:21]: Truncating to snapshot #111...
[02:14:21]:  - session/6F22593E99466731/0000000105
[02:14:21]:    1 file(s) removed
[02:15:47]: Registering secondary shard in US lobby
[02:16:13]: [Shard] #1 -> session/6F22593E99466731/A7JHI6ACBK3V/0000000112
[02:16:13]: [Shard] Received migration #1 data for (KU_SP6KnT1_)
[02:16:22]: [P2P] Session request for '76561198074641097'
[02:16:27]: [P2P] Create session: 17.80.97.72|1 '76561198074641097'
[02:16:27]: [P2P] Received from 17.80.97.72|1 '76561198074641097'
[02:16:27]: [P2P] Sent to 17.80.97.72|1 '76561198074641097'
[02:16:28]: New incoming connection 17.80.97.72|1 <7491752583845850671>
[02:16:28]: Client connected from 17.80.97.72|1 <7491752583845850671>
[02:16:28]: ValidateGameSessionToken pgs-usc^KU_SP6KnT1_^DontStarveTogether^Gf07ypkU6028flc4RcIKwSP1/mfPQaMZz6X7/XMZ7sE= for <7491752583845850671>
[02:16:28]: Client authenticated: (KU_SP6KnT1_) VayMutt
[02:16:29]: [Steam] SendUserConnectAndAuthenticate for '76561198074641097'
[02:16:29]: [Steam] Authenticated client '76561198074641097'
[02:16:29]: [Shard] Completed incoming migration #1 for (KU_SP6KnT1_)
[02:17:06]: Resuming user: session/6F22593E99466731/A7JHI6ACBK3V/0000000112
[02:17:06]: Player will spawn close to portal #9	
[02:17:06]: Spawning player at: [Load] (-69.99, 0.00, -464.16)	
[02:18:28]: Activating portal[9] to 1	
[02:18:28]: Serializing user: session/6F22593E99466731/A7JHI6ACBK3V/0000000112
[02:18:28]: [Shard] Migration request: (KU_SP6KnT1_) to [SHDMASTER](1)
[02:18:28]: [Shard] #2 <- session/6F22593E99466731/A7JHI6ACBK3V/0000000112
[02:18:28]: CloseConnectionWithReason: ID_DST_SHARD_SILENT_DISCONNECT
[02:18:29]: [Steam] SendUserDisconnect for '76561198074641097'
[02:20:47]: Registering secondary shard in US lobby
[02:22:22]: Available disk space for save files: 70193 MB
[02:22:22]: Serializing world: session/6F22593E99466731/0000000112
[02:22:22]: Truncating to snapshot #112...
[02:22:22]:  - session/6F22593E99466731/0000000106
[02:22:22]:    1 file(s) removed
[02:25:47]: Registering secondary shard in US lobby
[02:28:36]: [P2P] Session timed out for '76561198074641097'
[02:28:36]: [P2P] Remove session: 17.80.97.72|1 '76561198074641097'
[02:30:10]: [200] Account Communication Success (6)
[02:30:10]: Received (KU_BRQybia2) from TokenPurpose
[02:30:22]: Available disk space for save files: 70186 MB
[02:30:23]: Serializing world: session/6F22593E99466731/0000000113
[02:30:23]: Truncating to snapshot #113...
[02:30:23]:  - session/6F22593E99466731/0000000107
[02:30:23]:    1 file(s) removed
[02:30:47]: Registering secondary shard in US lobby
[02:35:47]: Registering secondary shard in US lobby
[02:38:23]: Available disk space for save files: 70180 MB
[02:38:23]: Serializing world: session/6F22593E99466731/0000000114
[02:38:23]: Truncating to snapshot #114...
[02:38:23]:  - session/6F22593E99466731/0000000108
[02:38:23]:    1 file(s) removed
[02:40:47]: Registering secondary shard in US lobby
[02:44:15]: [Shard] We have been disconnected from the master. Waiting to reconnect...
[02:44:15]: Sim paused
[02:44:17]: [IPC] Received shutdown signal.
[02:44:17]: Available disk space for save files: 70240 MB
[02:44:17]: Serializing world: session/6F22593E99466731/0000000115
[02:44:17]: Truncating to snapshot #115...
[02:44:17]:  - session/6F22593E99466731/0000000109
[02:44:17]:    1 file(s) removed
[02:44:17]: [Shard] Stopping shard mode
[02:44:17]: [Steam] SendUserDisconnect for ''
[02:44:18]: Collecting garbage...
[02:44:18]: lua_gc took 0.16 seconds
[02:44:18]: ~ShardLuaProxy()
[02:44:18]: ~cEventLeaderboardProxy()
[02:44:18]: ~ItemServerLuaProxy()
[02:44:18]: ~InventoryLuaProxy()
[02:44:18]: ~NetworkLuaProxy()
[02:44:18]: ~SimLuaProxy()
[02:44:18]: lua_close took 0.26 seconds
[02:44:18]: Orphaned unnamed resource. This resource must have used Add( resource ) to insert itself into the manager. 
[02:44:18]: CurlRequestManager::ClientThread::Main() complete
[02:44:18]: HttpClient2 discarded 0 callbacks.
[02:44:18]: Shutting down
